{
  "openapi" : "3.0.1",
  "info" : {
    "title" : "Museum Service",
    "version" : "0.1.0"
  },
  "servers" : [ {
    "url" : "http://localhost:10010/api/v1"
  } ],
  "paths" : {
    "/dino" : {
      "get" : {
        "description" : "Returns list of different exhibit and dinosaurs",
        "operationId" : "dino",
        "parameters" : [ {
          "name" : "date",
          "in" : "query",
          "description" : "Filtering date",
          "schema" : {
            "type" : "string"
          }
        } ],
        "responses" : {
          "200" : {
            "description" : "Success",
            "content" : {
              "application/json" : {
                "schema" : {
                  "$ref" : "#/components/schemas/DinoResponse"
                }
              }
            }
          },
          "default" : {
            "description" : "Error",
            "content" : {
              "application/json" : {
                "schema" : {
                  "$ref" : "#/components/schemas/ErrorResponse"
                }
              }
            }
          }
        }
      },
      "x-swagger-router-controller" : "dino-controller"
    },
    "/Dino/{date}" : {
      "get" : {
        "description" : "Returns info on certain dino",
        "operationId" : "Dino",
        "parameters" : [ {
          "name" : "date",
          "in" : "path",
          "description" : "target date",
          "required" : true,
          "schema" : {
            "type" : "string"
          }
        } ],
        "responses" : {
          "200" : {
            "description" : "Success",
            "content" : {
              "application/json" : {
                "schema" : {
                  "$ref" : "#/components/schemas/DinoResponse"
                }
              }
            }
          },
          "default" : {
            "description" : "Error",
            "content" : {
              "application/json" : {
                "schema" : {
                  "$ref" : "#/components/schemas/ErrorResponse"
                }
              }
            }
          }
        }
      },
      "x-swagger-router-controller" : "dino-controller"
    },
    "/tour" : {
      "get" : {
        "description" : "Returns list of different tours",
        "operationId" : "tour",
        "parameters" : [ {
          "name" : "date",
          "in" : "query",
          "description" : "Filtering date",
          "schema" : {
            "type" : "string"
          }
        } ],
        "responses" : {
          "200" : {
            "description" : "Success",
            "content" : {
              "application/json" : {
                "schema" : {
                  "$ref" : "#/components/schemas/TourResponse"
                }
              }
            }
          },
          "default" : {
            "description" : "Error",
            "content" : {
              "application/json" : {
                "schema" : {
                  "$ref" : "#/components/schemas/ErrorResponse"
                }
              }
            }
          }
        }
      },
      "x-swagger-router-controller" : "tour-controller"
    },
    "/swagger" : {
      "x-swagger-pipe" : "swagger_raw"
    }
  },
  "components" : {
    "schemas" : {
      "DinoResponse" : {
        "type" : "array",
        "items" : {
          "$ref" : "#/components/schemas/dino"
        }
      },
      "dino" : {
        "type" : "object",
        "properties" : {
          "name" : {
            "type" : "string"
          },
          "material" : {
            "type" : "string"
          },
          "year" : {
            "type" : "string"
          },
          "sentences" : {
            "type" : "string"
          }
        }
      },
      "TourResponse" : {
        "type" : "array",
        "items" : {
          "$ref" : "#/components/schemas/tour"
        }
      },
      "tour" : {
        "type" : "object",
        "properties" : {
          "day" : {
            "type" : "string"
          },
          "name" : {
            "type" : "string"
          },
          "address" : {
            "type" : "string"
          },
          "year" : {
            "type" : "string"
          },
          "description" : {
            "type" : "string"
          },
          "dollar" : {
            "type" : "string"
          }
        }
      },
      "ErrorResponse" : {
        "required" : [ "message" ],
        "type" : "object",
        "properties" : {
          "message" : {
            "type" : "string"
          }
        }
      }
    }
  }
}